COUNTRY	Coffee	InstantCoffee	Tea	Sweetener	Biscuits	PackagedSoup	CannedSoup	InstantPotatoes	FrozenFish	FrozenVegetables	FreshApple	FreshOrange	CannedFruit	Jam	Garlic	Butter	Margarine
Germany	90	49	88	19	57	51	19	21	27	21	81	75	44	71	22	91	85
Italy	82	10	60	2	55	41	3	2	4	2	67	71	9	46	80	66	24
France	88	42	63	4	76	53	11	23	11	5	87	84	40	45	88	94	47
Holland	96	62	98	32	62	67	43	7	14	14	83	89	61	81	15	31	97
Belgium	94	38	48	11	74	37	23	9	13	12	76	76	42	57	29	84	80
Luxembourg	97	61	86	28	79	73	12	7	26	23	85	94	83	20	91	94	94
England	27	86	99	22	91	55	76	17	20	24	76	68	89	91	11	95	94
Portugal	72	26	77	2	22	34	1	5	20	3	22	51	8	16	89	65	78
Austria	55	31	61	15	29	33	1	5	15	11	49	42	14	41	51	51	72
Switzerland	73	72	85	25	31	69	10	17	19	15	79	70	46	61	64	82	48
Sweden	97	13	93	31	0	43	43	39	54	45	56	78	53	75	9	68	32
Denmark	96	17	92	35	66	32	17	11	51	42	81	72	50	64	11	92	91
Norway	92	17	83	13	62	51	4	17	30	15	61	72	34	51	11	63	94
Finland	98	12	84	20	64	27	10	8	18	12	50	57	22	37	15	96	94
Spain	70	40	40	0	62	43	2	14	23	7	59	77	30	38	86	44	51
Ireland	30	52	99	11	80	75	18	2	5	3	57	52	46	89	5	97	25
