Peak	m/z=141.1	m/z=186.7	m/z=128.1	m/z=128	m/z=624.6	m/z=373	m/z=800	m/z=341	m/z=888	m/z=1100	m/z=936	m/z=920	m/z=171	m/z=421.3	m/z=678.1	m/z=159.9	m/z=650.4
Healthy	90	49	88	19	57	51	19	21	27	21	81	75	44	71	22	91	85
Sick	82	10	60	2	55	41	3	2	4	2	67	71	9	46	80	66	24
Sick	88	42	63	4	76	53	11	23	11	5	87	84	40	45	88	94	47
Healthy	96	62	98	32	62	67	43	7	14	14	83	89	61	81	15	31	97
Sick	94	38	48	11	74	37	23	9	13	12	76	76	42	57	29	84	80
Sick	97	61	86	28	79	73	12	7	26	23	85	94	83	20	91	94	94
Healthy	27	86	99	22	91	55	76	17	20	24	76	68	89	91	11	95	94
Sick	72	26	77	2	22	34	1	5	20	3	22	51	8	16	89	65	78
Sick	55	31	61	15	29	33	1	5	15	11	49	42	14	41	51	51	72
Healthy	73	72	85	25	31	69	10	17	19	15	79	70	46	61	64	82	48
Healthy	97	13	93	31	0	43	43	39	54	45	56	78	53	75	9	68	32
Healthy	96	17	92	35	66	32	17	11	51	42	81	72	50	64	11	92	91
Healthy	92	17	83	13	62	51	4	17	30	15	61	72	34	51	11	63	94
Healthy	98	12	84	20	64	27	10	8	18	12	50	57	22	37	15	96	94
Sick	70	40	40	0	62	43	2	14	23	7	59	77	30	38	86	44	51
Sick	30	52	99	11	80	75	18	2	5	3	57	52	46	89	5	97	25
